<?xml version="1.0" encoding="utf-8"?>
<!-- Generator: Adobe Illustrator 16.2.0, SVG Export Plug-In . SVG Version: 6.00 Build 0)  -->
<!DOCTYPE svg PUBLIC "-//W3C//DTD SVG 1.1//EN" "http://www.w3.org/Graphics/SVG/1.1/DTD/svg11.dtd">
<svg version="1.1" id="Layer_1" xmlns="http://www.w3.org/2000/svg" xmlns:xlink="http://www.w3.org/1999/xlink" x="0px" y="0px"
	 width="120px" height="120px" viewBox="0 0 120 120" enable-background="new 0 0 120 120" xml:space="preserve">
<g>
	<g>
		<path fill="#059F88" d="M60,2c31.981,0,58,26.019,58,58c0,31.982-26.019,58-58,58S2,91.982,2,60C2,28.019,28.019,2,60,2 M60,0
			C26.861,0,0,26.863,0,60s26.861,60,60,60c33.137,0,60-26.863,60-60S93.137,0,60,0L60,0z"/>
	</g>
</g>
<g>
	<path fill="#059F88" d="M67.179,44.043c-5.36,0-9.721-4.361-9.721-9.721s4.36-9.721,9.721-9.721s9.721,4.361,9.721,9.721
		S72.539,44.043,67.179,44.043z M67.179,26.102c-4.533,0-8.221,3.688-8.221,8.221s3.688,8.221,8.221,8.221s8.221-3.688,8.221-8.221
		S71.712,26.102,67.179,26.102z"/>
</g>
<g>
	<path fill="#059F88" d="M67.179,95.374c-5.36,0-9.721-4.36-9.721-9.721s4.36-9.721,9.721-9.721s9.721,4.36,9.721,9.721
		S72.539,95.374,67.179,95.374z M67.179,77.432c-4.533,0-8.221,3.688-8.221,8.221s3.688,8.221,8.221,8.221s8.221-3.688,8.221-8.221
		S71.712,77.432,67.179,77.432z"/>
</g>
<g>
	<path fill="#059F88" d="M38.813,69.708c-5.36,0-9.721-4.36-9.721-9.721c0-5.36,4.36-9.721,9.721-9.721s9.721,4.361,9.721,9.721
		C48.534,65.348,44.174,69.708,38.813,69.708z M38.813,51.767c-4.533,0-8.221,3.688-8.221,8.221c0,4.533,3.688,8.221,8.221,8.221
		s8.221-3.688,8.221-8.221C47.034,55.455,43.347,51.767,38.813,51.767z"/>
</g>
<g>
	
		<rect x="52.473" y="36.989" transform="matrix(0.7071 0.7071 -0.7071 0.7071 48.9325 -23.823)" fill="#059F88" width="1.5" height="20.333"/>
</g>
<g>
	
		<rect x="43.026" y="72.07" transform="matrix(0.7071 0.7071 -0.7071 0.7071 67.1016 -16.357)" fill="#059F88" width="20.538" height="1.5"/>
</g>
</svg>
